<svg width="65" height="65" viewBox="0 0 65 65" fill="none" xmlns="http://www.w3.org/2000/svg">
<g clip-path="url(#clip0_81_5014)">
<path d="M14.7261 0.13621L-17.4199 33.9159V64.1272L14.6659 31.9811L46.5861 0.121155L14.7261 0.13621Z" fill="url(#paint0_linear_81_5014)"/>
<path d="M-17.4199 64.1347L14.6659 31.9886L46.5861 64.1347H-17.4199Z" fill="url(#paint1_linear_81_5014)"/>
<path d="M-17.4199 0.1362H14.7261L-17.4199 33.9159V0.1362Z" fill="url(#paint2_linear_81_5014)"/>
</g>
<defs>
<linearGradient id="paint0_linear_81_5014" x1="-28.193" y1="58.9778" x2="31.3638" y2="-0.578973" gradientUnits="userSpaceOnUse">
<stop offset="0.108" stop-color="#C757BC"/>
<stop offset="0.173" stop-color="#CD5CA9"/>
<stop offset="0.492" stop-color="#E8744F"/>
<stop offset="0.716" stop-color="#F88316"/>
<stop offset="0.823" stop-color="#FF8900"/>
</linearGradient>
<linearGradient id="paint1_linear_81_5014" x1="3.01201" y1="75.6832" x2="32.0413" y2="46.6539" gradientUnits="userSpaceOnUse">
<stop offset="0.296" stop-color="#00AFFF"/>
<stop offset="0.694" stop-color="#5282FF"/>
<stop offset="1" stop-color="#945DFF"/>
</linearGradient>
<linearGradient id="paint2_linear_81_5014" x1="-18.1803" y1="17.7977" x2="2.17637" y2="-2.56648" gradientUnits="userSpaceOnUse">
<stop offset="0.296" stop-color="#00AFFF"/>
<stop offset="0.694" stop-color="#5282FF"/>
<stop offset="1" stop-color="#945DFF"/>
</linearGradient>
<clipPath id="clip0_81_5014">
<rect width="64" height="64" fill="white" transform="translate(0.5 0.135315)"/>
</clipPath>
</defs>
</svg>
